{
  "devToolsPort": 19002,
  "expoServerPort": 19000,
  "packagerPort": 19000,
  "expoServerNgrokUrl": "https://f8-caf.anonymous.mei.exp.direct",
  "packagerNgrokUrl": "https://packager.f8-caf.anonymous.mei.exp.direct",
  "ngrokPid": 8020,
  "webpackServerPort": 19006
}
